<?xml version="1.0" encoding="utf-8"?>
<COLLADA xmlns="http://www.collada.org/2005/11/COLLADASchema" version="1.4.1">
   <asset>
      <contributor>
         <authoring_tool>Google 3D Warehouse 1.0</authoring_tool>
      </contributor>
      <created>2012-05-23T23:44:21Z</created>
      <modified>2012-05-23T23:44:21Z</modified>
      <unit name="meters" meter="1.0"/>
      <up_axis>Z_UP</up_axis>
   </asset>
   <library_images>
      <image id="material_0_1_0-image" name="material_0_1_0-image">
         <init_from>../images/texture0.jpg</init_from>
      </image>
      <image id="material_0_1_8-image" name="material_0_1_8-image">
         <init_from>../images/texture0.jpg</init_from>
      </image>
      <image id="material_1_2_8-image" name="material_1_2_8-image">
         <init_from>../images/texture1.jpg</init_from>
      </image>
      <image id="material_2_3_8-image" name="material_2_3_8-image">
         <init_from>../images/texture2.jpg</init_from>
      </image>
      <image id="material_2_4_8-image" name="material_2_4_8-image">
         <init_from>../images/texture3.jpg</init_from>
      </image>
      <image id="material_3_5_0-image" name="material_3_5_0-image">
         <init_from>../images/texture4.jpg</init_from>
      </image>
      <image id="material_4_6_0-image" name="material_4_6_0-image">
         <init_from>../images/texture5.jpg</init_from>
      </image>
      <image id="material_3_5_8-image" name="material_3_5_8-image">
         <init_from>../images/texture4.jpg</init_from>
      </image>
      <image id="material_5_7_8-image" name="material_5_7_8-image">
         <init_from>../images/texture6.jpg</init_from>
      </image>
      <image id="material_6_8_0-image" name="material_6_8_0-image">
         <init_from>../images/texture7.jpg</init_from>
      </image>
      <image id="material_7_9_0-image" name="material_7_9_0-image">
         <init_from>../images/texture8.jpg</init_from>
      </image>
      <image id="material_8_10_0-image" name="material_8_10_0-image">
         <init_from>../images/texture9.jpg</init_from>
      </image>
      <image id="material_9_11_0-image" name="material_9_11_0-image">
         <init_from>../images/texture10.jpg</init_from>
      </image>
      <image id="material_10_12_0-image" name="material_10_12_0-image">
         <init_from>../images/texture11.jpg</init_from>
      </image>
      <image id="material_11_13_8-image" name="material_11_13_8-image">
         <init_from>../images/texture12.jpg</init_from>
      </image>
      <image id="material_12_14_0-image" name="material_12_14_0-image">
         <init_from>../images/texture13.jpg</init_from>
      </image>
      <image id="material_13_15_0-image" name="material_13_15_0-image">
         <init_from>../images/texture14.jpg</init_from>
      </image>
      <image id="material_14_16_0-image" name="material_14_16_0-image">
         <init_from>../images/texture15.jpg</init_from>
      </image>
      <image id="material_15_17_8-image" name="material_15_17_8-image">
         <init_from>../images/texture0.png</init_from>
      </image>
   </library_images>
   <library_materials>
      <material id="material_0_1_0ID" name="material_0_1_0">
         <instance_effect url="#material_0_1_0-effect"/>
      </material>
      <material id="material_0_1_8ID" name="material_0_1_8">
         <instance_effect url="#material_0_1_8-effect"/>
      </material>
      <material id="material_1_2_8ID" name="material_1_2_8">
         <instance_effect url="#material_1_2_8-effect"/>
      </material>
      <material id="material_2_3_8ID" name="material_2_3_8">
         <instance_effect url="#material_2_3_8-effect"/>
      </material>
      <material id="material_2_4_8ID" name="material_2_4_8">
         <instance_effect url="#material_2_4_8-effect"/>
      </material>
      <material id="material_3_5_0ID" name="material_3_5_0">
         <instance_effect url="#material_3_5_0-effect"/>
      </material>
      <material id="material_4_6_0ID" name="material_4_6_0">
         <instance_effect url="#material_4_6_0-effect"/>
      </material>
      <material id="material_3_5_8ID" name="material_3_5_8">
         <instance_effect url="#material_3_5_8-effect"/>
      </material>
      <material id="material_5_7_8ID" name="material_5_7_8">
         <instance_effect url="#material_5_7_8-effect"/>
      </material>
      <material id="material_6_8_0ID" name="material_6_8_0">
         <instance_effect url="#material_6_8_0-effect"/>
      </material>
      <material id="material_7_9_0ID" name="material_7_9_0">
         <instance_effect url="#material_7_9_0-effect"/>
      </material>
      <material id="material_8_10_0ID" name="material_8_10_0">
         <instance_effect url="#material_8_10_0-effect"/>
      </material>
      <material id="material_9_11_0ID" name="material_9_11_0">
         <instance_effect url="#material_9_11_0-effect"/>
      </material>
      <material id="material_10_12_0ID" name="material_10_12_0">
         <instance_effect url="#material_10_12_0-effect"/>
      </material>
      <material id="material_11_13_8ID" name="material_11_13_8">
         <instance_effect url="#material_11_13_8-effect"/>
      </material>
      <material id="material_12_14_0ID" name="material_12_14_0">
         <instance_effect url="#material_12_14_0-effect"/>
      </material>
      <material id="material_13_15_0ID" name="material_13_15_0">
         <instance_effect url="#material_13_15_0-effect"/>
      </material>
      <material id="material_14_16_0ID" name="material_14_16_0">
         <instance_effect url="#material_14_16_0-effect"/>
      </material>
      <material id="material_15_17_8ID" name="material_15_17_8">
         <instance_effect url="#material_15_17_8-effect"/>
      </material>
   </library_materials>
   <library_effects>
      <effect id="material_0_1_0-effect" name="material_0_1_0-effect">
         <profile_COMMON>
            <newparam sid="material_0_1_0-image-surface">
               <surface type="2D">
                  <init_from>material_0_1_0-image</init_from>
               </surface>
            </newparam>
            <newparam sid="material_0_1_0-image-sampler">
               <sampler2D>
                  <source>material_0_1_0-image-surface</source>
               </sampler2D>
            </newparam>
            <technique sid="COMMON">
               <lambert>
                  <emission>
                     <color>0.000000 0.000000 0.000000 1</color>
                  </emission>
                  <ambient>
                     <color>0.000000 0.000000 0.000000 1</color>
                  </ambient>
                  <diffuse>
                     <texture texture="material_0_1_0-image-sampler" texcoord="UVSET0"/>
                  </diffuse>
               </lambert>
            </technique>
            <extra>
               <technique profile="GOOGLEEARTH">
                  <double_sided>1</double_sided>
               </technique>
            </extra>
         </profile_COMMON>
      </effect>
      <effect id="material_0_1_8-effect" name="material_0_1_8-effect">
         <profile_COMMON>
            <newparam sid="material_0_1_8-image-surface">
               <surface type="2D">
                  <init_from>material_0_1_8-image</init_from>
               </surface>
            </newparam>
            <newparam sid="material_0_1_8-image-sampler">
               <sampler2D>
                  <source>material_0_1_8-image-surface</source>
               </sampler2D>
            </newparam>
            <technique sid="COMMON">
               <lambert>
                  <emission>
                     <color>0.000000 0.000000 0.000000 1</color>
                  </emission>
                  <ambient>
                     <color>0.000000 0.000000 0.000000 1</color>
                  </ambient>
                  <diffuse>
                     <texture texture="material_0_1_8-image-sampler" texcoord="UVSET0"/>
                  </diffuse>
               </lambert>
            </technique>
         </profile_COMMON>
      </effect>
      <effect id="material_1_2_8-effect" name="material_1_2_8-effect">
         <profile_COMMON>
            <newparam sid="material_1_2_8-image-surface">
               <surface type="2D">
                  <init_from>material_1_2_8-image</init_from>
               </surface>
            </newparam>
            <newparam sid="material_1_2_8-image-sampler">
               <sampler2D>
                  <source>material_1_2_8-image-surface</source>
               </sampler2D>
            </newparam>
            <technique sid="COMMON">
               <lambert>
                  <emission>
                     <color>0.000000 0.000000 0.000000 1</color>
                  </emission>
                  <ambient>
                     <color>0.000000 0.000000 0.000000 1</color>
                  </ambient>
                  <diffuse>
                     <texture texture="material_1_2_8-image-sampler" texcoord="UVSET0"/>
                  </diffuse>
               </lambert>
            </technique>
         </profile_COMMON>
      </effect>
      <effect id="material_2_3_8-effect" name="material_2_3_8-effect">
         <profile_COMMON>
            <newparam sid="material_2_3_8-image-surface">
               <surface type="2D">
                  <init_from>material_2_3_8-image</init_from>
               </surface>
            </newparam>
            <newparam sid="material_2_3_8-image-sampler">
               <sampler2D>
                  <source>material_2_3_8-image-surface</source>
               </sampler2D>
            </newparam>
            <technique sid="COMMON">
               <lambert>
                  <emission>
                     <color>0.000000 0.000000 0.000000 1</color>
                  </emission>
                  <ambient>
                     <color>0.000000 0.000000 0.000000 1</color>
                  </ambient>
                  <diffuse>
                     <texture texture="material_2_3_8-image-sampler" texcoord="UVSET0"/>
                  </diffuse>
               </lambert>
            </technique>
         </profile_COMMON>
      </effect>
      <effect id="material_2_4_8-effect" name="material_2_4_8-effect">
         <profile_COMMON>
            <newparam sid="material_2_4_8-image-surface">
               <surface type="2D">
                  <init_from>material_2_4_8-image</init_from>
               </surface>
            </newparam>
            <newparam sid="material_2_4_8-image-sampler">
               <sampler2D>
                  <source>material_2_4_8-image-surface</source>
               </sampler2D>
            </newparam>
            <technique sid="COMMON">
               <lambert>
                  <emission>
                     <color>0.000000 0.000000 0.000000 1</color>
                  </emission>
                  <ambient>
                     <color>0.000000 0.000000 0.000000 1</color>
                  </ambient>
                  <diffuse>
                     <texture texture="material_2_4_8-image-sampler" texcoord="UVSET0"/>
                  </diffuse>
               </lambert>
            </technique>
         </profile_COMMON>
      </effect>
      <effect id="material_3_5_0-effect" name="material_3_5_0-effect">
         <profile_COMMON>
            <newparam sid="material_3_5_0-image-surface">
               <surface type="2D">
                  <init_from>material_3_5_0-image</init_from>
               </surface>
            </newparam>
            <newparam sid="material_3_5_0-image-sampler">
               <sampler2D>
                  <source>material_3_5_0-image-surface</source>
               </sampler2D>
            </newparam>
            <technique sid="COMMON">
               <lambert>
                  <emission>
                     <color>0.000000 0.000000 0.000000 1</color>
                  </emission>
                  <ambient>
                     <color>0.000000 0.000000 0.000000 1</color>
                  </ambient>
                  <diffuse>
                     <texture texture="material_3_5_0-image-sampler" texcoord="UVSET0"/>
                  </diffuse>
               </lambert>
            </technique>
            <extra>
               <technique profile="GOOGLEEARTH">
                  <double_sided>1</double_sided>
               </technique>
            </extra>
         </profile_COMMON>
      </effect>
      <effect id="material_4_6_0-effect" name="material_4_6_0-effect">
         <profile_COMMON>
            <newparam sid="material_4_6_0-image-surface">
               <surface type="2D">
                  <init_from>material_4_6_0-image</init_from>
               </surface>
            </newparam>
            <newparam sid="material_4_6_0-image-sampler">
               <sampler2D>
                  <source>material_4_6_0-image-surface</source>
               </sampler2D>
            </newparam>
            <technique sid="COMMON">
               <lambert>
                  <emission>
                     <color>0.000000 0.000000 0.000000 1</color>
                  </emission>
                  <ambient>
                     <color>0.000000 0.000000 0.000000 1</color>
                  </ambient>
                  <diffuse>
                     <texture texture="material_4_6_0-image-sampler" texcoord="UVSET0"/>
                  </diffuse>
               </lambert>
            </technique>
            <extra>
               <technique profile="GOOGLEEARTH">
                  <double_sided>1</double_sided>
               </technique>
            </extra>
         </profile_COMMON>
      </effect>
      <effect id="material_3_5_8-effect" name="material_3_5_8-effect">
         <profile_COMMON>
            <newparam sid="material_3_5_8-image-surface">
               <surface type="2D">
                  <init_from>material_3_5_8-image</init_from>
               </surface>
            </newparam>
            <newparam sid="material_3_5_8-image-sampler">
               <sampler2D>
                  <source>material_3_5_8-image-surface</source>
               </sampler2D>
            </newparam>
            <technique sid="COMMON">
               <lambert>
                  <emission>
                     <color>0.000000 0.000000 0.000000 1</color>
                  </emission>
                  <ambient>
                     <color>0.000000 0.000000 0.000000 1</color>
                  </ambient>
                  <diffuse>
                     <texture texture="material_3_5_8-image-sampler" texcoord="UVSET0"/>
                  </diffuse>
               </lambert>
            </technique>
         </profile_COMMON>
      </effect>
      <effect id="material_5_7_8-effect" name="material_5_7_8-effect">
         <profile_COMMON>
            <newparam sid="material_5_7_8-image-surface">
               <surface type="2D">
                  <init_from>material_5_7_8-image</init_from>
               </surface>
            </newparam>
            <newparam sid="material_5_7_8-image-sampler">
               <sampler2D>
                  <source>material_5_7_8-image-surface</source>
               </sampler2D>
            </newparam>
            <technique sid="COMMON">
               <lambert>
                  <emission>
                     <color>0.000000 0.000000 0.000000 1</color>
                  </emission>
                  <ambient>
                     <color>0.000000 0.000000 0.000000 1</color>
                  </ambient>
                  <diffuse>
                     <texture texture="material_5_7_8-image-sampler" texcoord="UVSET0"/>
                  </diffuse>
               </lambert>
            </technique>
         </profile_COMMON>
      </effect>
      <effect id="material_6_8_0-effect" name="material_6_8_0-effect">
         <profile_COMMON>
            <newparam sid="material_6_8_0-image-surface">
               <surface type="2D">
                  <init_from>material_6_8_0-image</init_from>
               </surface>
            </newparam>
            <newparam sid="material_6_8_0-image-sampler">
               <sampler2D>
                  <source>material_6_8_0-image-surface</source>
               </sampler2D>
            </newparam>
            <technique sid="COMMON">
               <lambert>
                  <emission>
                     <color>0.000000 0.000000 0.000000 1</color>
                  </emission>
                  <ambient>
                     <color>0.000000 0.000000 0.000000 1</color>
                  </ambient>
                  <diffuse>
                     <texture texture="material_6_8_0-image-sampler" texcoord="UVSET0"/>
                  </diffuse>
               </lambert>
            </technique>
            <extra>
               <technique profile="GOOGLEEARTH">
                  <double_sided>1</double_sided>
               </technique>
            </extra>
         </profile_COMMON>
      </effect>
      <effect id="material_7_9_0-effect" name="material_7_9_0-effect">
         <profile_COMMON>
            <newparam sid="material_7_9_0-image-surface">
               <surface type="2D">
                  <init_from>material_7_9_0-image</init_from>
               </surface>
            </newparam>
            <newparam sid="material_7_9_0-image-sampler">
               <sampler2D>
                  <source>material_7_9_0-image-surface</source>
               </sampler2D>
            </newparam>
            <technique sid="COMMON">
               <lambert>
                  <emission>
                     <color>0.000000 0.000000 0.000000 1</color>
                  </emission>
                  <ambient>
                     <color>0.000000 0.000000 0.000000 1</color>
                  </ambient>
                  <diffuse>
                     <texture texture="material_7_9_0-image-sampler" texcoord="UVSET0"/>
                  </diffuse>
               </lambert>
            </technique>
            <extra>
               <technique profile="GOOGLEEARTH">
                  <double_sided>1</double_sided>
               </technique>
            </extra>
         </profile_COMMON>
      </effect>
      <effect id="material_8_10_0-effect" name="material_8_10_0-effect">
         <profile_COMMON>
            <newparam sid="material_8_10_0-image-surface">
               <surface type="2D">
                  <init_from>material_8_10_0-image</init_from>
               </surface>
            </newparam>
            <newparam sid="material_8_10_0-image-sampler">
               <sampler2D>
                  <source>material_8_10_0-image-surface</source>
               </sampler2D>
            </newparam>
            <technique sid="COMMON">
               <lambert>
                  <emission>
                     <color>0.000000 0.000000 0.000000 1</color>
                  </emission>
                  <ambient>
                     <color>0.000000 0.000000 0.000000 1</color>
                  </ambient>
                  <diffuse>
                     <texture texture="material_8_10_0-image-sampler" texcoord="UVSET0"/>
                  </diffuse>
               </lambert>
            </technique>
            <extra>
               <technique profile="GOOGLEEARTH">
                  <double_sided>1</double_sided>
               </technique>
            </extra>
         </profile_COMMON>
      </effect>
      <effect id="material_9_11_0-effect" name="material_9_11_0-effect">
         <profile_COMMON>
            <newparam sid="material_9_11_0-image-surface">
               <surface type="2D">
                  <init_from>material_9_11_0-image</init_from>
               </surface>
            </newparam>
            <newparam sid="material_9_11_0-image-sampler">
               <sampler2D>
                  <source>material_9_11_0-image-surface</source>
               </sampler2D>
            </newparam>
            <technique sid="COMMON">
               <lambert>
                  <emission>
                     <color>0.000000 0.000000 0.000000 1</color>
                  </emission>
                  <ambient>
                     <color>0.000000 0.000000 0.000000 1</color>
                  </ambient>
                  <diffuse>
                     <texture texture="material_9_11_0-image-sampler" texcoord="UVSET0"/>
                  </diffuse>
               </lambert>
            </technique>
            <extra>
               <technique profile="GOOGLEEARTH">
                  <double_sided>1</double_sided>
               </technique>
            </extra>
         </profile_COMMON>
      </effect>
      <effect id="material_10_12_0-effect" name="material_10_12_0-effect">
         <profile_COMMON>
            <newparam sid="material_10_12_0-image-surface">
               <surface type="2D">
                  <init_from>material_10_12_0-image</init_from>
               </surface>
            </newparam>
            <newparam sid="material_10_12_0-image-sampler">
               <sampler2D>
                  <source>material_10_12_0-image-surface</source>
               </sampler2D>
            </newparam>
            <technique sid="COMMON">
               <lambert>
                  <emission>
                     <color>0.000000 0.000000 0.000000 1</color>
                  </emission>
                  <ambient>
                     <color>0.000000 0.000000 0.000000 1</color>
                  </ambient>
                  <diffuse>
                     <texture texture="material_10_12_0-image-sampler" texcoord="UVSET0"/>
                  </diffuse>
               </lambert>
            </technique>
            <extra>
               <technique profile="GOOGLEEARTH">
                  <double_sided>1</double_sided>
               </technique>
            </extra>
         </profile_COMMON>
      </effect>
      <effect id="material_11_13_8-effect" name="material_11_13_8-effect">
         <profile_COMMON>
            <newparam sid="material_11_13_8-image-surface">
               <surface type="2D">
                  <init_from>material_11_13_8-image</init_from>
               </surface>
            </newparam>
            <newparam sid="material_11_13_8-image-sampler">
               <sampler2D>
                  <source>material_11_13_8-image-surface</source>
               </sampler2D>
            </newparam>
            <technique sid="COMMON">
               <lambert>
                  <emission>
                     <color>0.000000 0.000000 0.000000 1</color>
                  </emission>
                  <ambient>
                     <color>0.000000 0.000000 0.000000 1</color>
                  </ambient>
                  <diffuse>
                     <texture texture="material_11_13_8-image-sampler" texcoord="UVSET0"/>
                  </diffuse>
               </lambert>
            </technique>
         </profile_COMMON>
      </effect>
      <effect id="material_12_14_0-effect" name="material_12_14_0-effect">
         <profile_COMMON>
            <newparam sid="material_12_14_0-image-surface">
               <surface type="2D">
                  <init_from>material_12_14_0-image</init_from>
               </surface>
            </newparam>
            <newparam sid="material_12_14_0-image-sampler">
               <sampler2D>
                  <source>material_12_14_0-image-surface</source>
               </sampler2D>
            </newparam>
            <technique sid="COMMON">
               <lambert>
                  <emission>
                     <color>0.000000 0.000000 0.000000 1</color>
                  </emission>
                  <ambient>
                     <color>0.000000 0.000000 0.000000 1</color>
                  </ambient>
                  <diffuse>
                     <texture texture="material_12_14_0-image-sampler" texcoord="UVSET0"/>
                  </diffuse>
               </lambert>
            </technique>
            <extra>
               <technique profile="GOOGLEEARTH">
                  <double_sided>1</double_sided>
               </technique>
            </extra>
         </profile_COMMON>
      </effect>
      <effect id="material_13_15_0-effect" name="material_13_15_0-effect">
         <profile_COMMON>
            <newparam sid="material_13_15_0-image-surface">
               <surface type="2D">
                  <init_from>material_13_15_0-image</init_from>
               </surface>
            </newparam>
            <newparam sid="material_13_15_0-image-sampler">
               <sampler2D>
                  <source>material_13_15_0-image-surface</source>
               </sampler2D>
            </newparam>
            <technique sid="COMMON">
               <lambert>
                  <emission>
                     <color>0.000000 0.000000 0.000000 1</color>
                  </emission>
                  <ambient>
                     <color>0.000000 0.000000 0.000000 1</color>
                  </ambient>
                  <diffuse>
                     <texture texture="material_13_15_0-image-sampler" texcoord="UVSET0"/>
                  </diffuse>
               </lambert>
            </technique>
            <extra>
               <technique profile="GOOGLEEARTH">
                  <double_sided>1</double_sided>
               </technique>
            </extra>
         </profile_COMMON>
      </effect>
      <effect id="material_14_16_0-effect" name="material_14_16_0-effect">
         <profile_COMMON>
            <newparam sid="material_14_16_0-image-surface">
               <surface type="2D">
                  <init_from>material_14_16_0-image</init_from>
               </surface>
            </newparam>
            <newparam sid="material_14_16_0-image-sampler">
               <sampler2D>
                  <source>material_14_16_0-image-surface</source>
               </sampler2D>
            </newparam>
            <technique sid="COMMON">
               <lambert>
                  <emission>
                     <color>0.000000 0.000000 0.000000 1</color>
                  </emission>
                  <ambient>
                     <color>0.000000 0.000000 0.000000 1</color>
                  </ambient>
                  <diffuse>
                     <texture texture="material_14_16_0-image-sampler" texcoord="UVSET0"/>
                  </diffuse>
               </lambert>
            </technique>
            <extra>
               <technique profile="GOOGLEEARTH">
                  <double_sided>1</double_sided>
               </technique>
            </extra>
         </profile_COMMON>
      </effect>
      <effect id="material_15_17_8-effect" name="material_15_17_8-effect">
         <profile_COMMON>
            <newparam sid="material_15_17_8-image-surface">
               <surface type="2D">
                  <init_from>material_15_17_8-image</init_from>
               </surface>
            </newparam>
            <newparam sid="material_15_17_8-image-sampler">
               <sampler2D>
                  <source>material_15_17_8-image-surface</source>
               </sampler2D>
            </newparam>
            <technique sid="COMMON">
               <lambert>
                  <emission>
                     <color>0.000000 0.000000 0.000000 1</color>
                  </emission>
                  <ambient>
                     <color>0.000000 0.000000 0.000000 1</color>
                  </ambient>
                  <diffuse>
                     <texture texture="material_15_17_8-image-sampler" texcoord="UVSET0"/>
                  </diffuse>
                  <transparent opaque="A_ONE">
                     <texture texture="material_15_17_8-image-sampler" texcoord="UVSET0"/>
                  </transparent>
               </lambert>
            </technique>
         </profile_COMMON>
      </effect>
   </library_effects>
   <library_geometries>
      <geometry id="mesh1-geometry" name="mesh1-geometry">
         <mesh>
            <source id="mesh1-geometry-position">
               <float_array id="mesh1-geometry-position-array" count="468">34.343445 -13.938299 -2.650000 29.703759 -15.316310 -2.650000 21.079637 25.231922 -2.650000 34.343445 -13.938299 0.000000 31.133019 -20.128546 -2.650000 19.920191 28.655957 -2.650000 22.656243 77.963052 -2.650000 29.703759 -15.316310 0.000000 15.013848 26.994573 -2.650000 31.133019 -20.128546 -0.000000 51.928879 -19.507990 -2.650000 21.079637 25.231922 0.000000 24.327171 72.691534 -2.650000 34.343445 -13.938299 8.610000 -19.337942 -35.118694 -2.650000 7.127569 -33.708785 -2.650000 33.334145 39.155520 -2.650000 15.013848 26.994573 0.000000 17.356128 76.283060 -2.650000 19.920191 28.655957 0.000000 28.445247 73.996852 -2.650000 22.656243 77.963052 8.610000 29.703759 -15.316310 8.610000 31.133019 -20.128546 8.610000 13.243415 32.222954 -2.650000 -19.337942 -35.118694 -0.000000 7.127569 -33.708785 8.610000 33.334145 39.155520 8.610000 21.079637 25.231922 8.610000 28.445247 73.996852 8.610000 24.327171 72.691534 8.610000 34.343445 -13.938299 287.214800 -19.337942 -35.118694 8.610000 -20.997963 -30.275273 -2.650000 -37.673741 -47.909579 -2.650000 -20.997963 -30.275273 0.000000 51.928879 -19.507990 8.610000 -37.673741 -47.909579 8.610000 33.334145 58.573134 -2.650000 54.591803 45.893618 -2.650000 15.013848 26.994573 8.610000 13.243415 32.222954 0.000000 11.010833 96.301482 -2.650000 19.920191 28.655957 8.610000 17.356128 76.283060 8.610000 29.703759 -15.316310 287.214800 31.133019 -20.128546 287.214800 -26.229237 -32.068225 -2.650000 -20.997963 -30.275273 8.610000 54.591803 45.893618 8.610000 -37.824422 16.959730 -0.000000 -13.091861 72.691534 -2.650000 11.010833 96.301482 8.610000 19.920191 28.655957 287.214800 33.334145 58.573134 8.610000 -19.337942 -35.118694 287.214800 -35.135951 -6.081218 -2.650000 -33.165888 -12.296462 -2.650000 -38.280877 -45.994159 -2.650000 -20.997963 -30.275273 287.214800 -26.229237 -32.068225 8.610000 -26.229237 -32.068225 0.000000 48.998879 63.538428 -2.650000 48.998879 63.538428 8.610000 15.013848 26.994573 287.214800 13.243415 32.222954 8.610000 -37.824422 16.959730 -2.650000 -37.824422 16.959730 8.610000 -36.489607 12.493695 0.000000 -32.385808 66.575879 -2.650000 -17.691771 87.203539 -2.650000 -16.469005 -16.581312 287.214800 -36.489607 12.493695 -2.650000 -35.135951 -6.081218 0.000000 -38.280877 -45.994159 8.610000 -33.165888 -12.296462 8.610000 -13.091861 72.691534 8.610000 -17.691771 87.203539 8.610000 10.519795 41.025848 8.610000 14.655461 -6.985870 287.214800 -41.036492 11.134716 -2.650000 -35.135951 -6.081218 8.610000 -74.366875 -18.516352 8.610000 -44.276871 -47.894725 -2.650000 -44.276871 -47.894725 8.610000 -26.229237 -32.068225 287.214800 13.243415 32.222954 287.214800 -37.824422 16.959730 287.214800 -36.552096 26.105341 8.610000 -36.872837 80.731763 -2.650000 -36.489607 12.493695 8.610000 -41.036492 11.134716 0.000000 -32.385808 66.575879 8.610000 -0.756700 76.601444 8.610000 -23.829325 4.310030 287.214800 14.655461 -6.985870 289.958000 -69.220203 36.699644 -2.650000 -53.515946 -18.746876 -2.650000 -41.036492 11.134716 8.610000 -74.366875 -18.516352 -2.650000 -41.036492 11.134716 287.214800 -36.872837 80.731763 8.610000 -9.362555 67.438463 8.610000 -9.362555 67.438463 16.470000 -11.216096 73.286101 8.610000 -36.552096 26.105341 16.470000 -0.756700 76.601444 16.470000 6.814063 13.830372 287.214800 -23.829325 4.310030 289.958000 -16.469005 -16.581312 289.958000 -60.830174 73.137941 -2.650000 -53.515946 -18.746876 8.610000 -69.220203 36.699644 8.610000 -89.190040 -23.214892 8.610000 -36.489607 12.493695 287.214800 -47.828591 61.680938 8.610000 -34.775384 59.383289 8.610000 -36.628925 65.230926 8.610000 10.519795 41.025848 16.470000 6.814063 13.830372 289.958000 -75.691046 13.395141 -2.650000 -78.949655 67.394559 -2.650000 -60.830174 73.137941 8.610000 -75.691046 13.395141 8.610000 -89.190040 -23.214892 -2.650000 -11.216096 73.286101 16.470000 -34.775384 59.383289 16.470000 -28.153425 38.492033 16.470000 -47.828591 61.680938 16.470000 -0.476572 66.575879 16.470000 -81.812744 32.708152 -2.650000 -78.949655 67.394559 8.610000 -81.812744 32.708152 8.610000 -96.218209 -1.042106 -2.650000 -94.769256 -0.582827 8.610000 -8.302822 64.095171 16.470000 -33.715651 56.039997 16.470000 -36.628925 65.230926 16.470000 -36.628925 35.805531 16.470000 -2.740596 46.547208 16.470000 -42.191152 53.353494 16.470000 5.085654 49.027916 16.470000 -94.769256 -0.582827 -2.650000 -96.218209 -1.042106 8.610000 -97.053562 6.623805 8.610000 -33.715651 56.039997 8.610000 -8.302822 64.095171 8.610000 -36.628925 35.805531 21.280000 -0.476572 66.575879 21.280000 -97.053562 6.623805 -2.650000 -33.715651 56.039997 21.280000 -28.153425 38.492033 21.280000 -2.740596 46.547208 21.280000 -8.302822 64.095171 21.280000 5.085654 49.027916 21.280000 -42.191152 53.353494 21.280000 </float_array>
               <technique_common>
                  <accessor source="#mesh1-geometry-position-array" count="156" stride="3">
                     <param name="X" type="float"/>
                     <param name="Y" type="float"/>
                     <param name="Z" type="float"/>
                  </accessor>
               </technique_common>
            </source>
            <source id="mesh1-geometry-normal">
               <float_array id="mesh1-geometry-normal-array" count="336">-0.000000 -0.000000 1.000000 -0.284713 0.958613 -0.000000 -0.000000 0.000000 -1.000000 -0.947170 -0.320731 0.000000 -0.958613 -0.284713 0.000000 -0.947170 -0.320731 0.000000 0.000000 0.000000 -1.000000 -0.284713 0.958613 -0.000000 0.320731 -0.947170 -0.000000 -0.947170 -0.320731 -0.000000 0.953258 0.302157 -0.000000 -0.958613 -0.284713 -0.000000 0.302157 -0.953258 -0.000000 0.953258 0.302157 0.000000 -0.947170 -0.320731 -0.000000 -0.947170 -0.320731 -0.000000 -0.302157 0.953258 -0.000000 -0.302157 0.953258 -0.000000 0.284713 -0.958613 0.000000 -0.000000 -0.000000 1.000000 -0.284713 0.958613 -0.000000 0.284713 -0.958613 0.000000 0.945981 0.324223 0.000000 0.302157 -0.953258 0.000000 0.302157 -0.953258 -0.000000 -0.947170 -0.320731 0.000000 0.947170 0.320731 -0.000000 0.953258 0.302157 -0.000000 -0.958613 -0.284713 -0.000000 0.958613 0.284713 0.000000 -0.284713 0.958613 -0.000000 0.284713 -0.958613 0.000000 0.945981 0.324223 -0.000000 0.286364 -0.958121 0.000000 0.953258 0.302157 -0.000000 -0.000000 -0.000000 -1.000000 0.000000 0.000000 1.000000 -0.324223 0.945981 -0.000000 -0.953258 -0.302157 -0.000000 0.945981 0.324223 -0.000000 -0.945981 -0.324223 0.000000 0.320731 -0.947170 0.000000 -0.320731 0.947170 -0.000000 0.286364 -0.958121 -0.000000 -0.302157 0.953258 -0.000000 -0.302157 0.953258 -0.000000 0.945981 0.324223 -0.000000 -0.324223 0.945981 -0.000000 0.324223 -0.945981 0.000000 -0.947170 -0.320731 -0.000000 0.947170 0.320731 0.000000 0.958121 0.286364 -0.000000 0.958121 0.286364 0.000000 -0.302157 0.953258 -0.000000 -0.953258 -0.302157 -0.000000 -0.953258 -0.302157 -0.000000 0.302157 -0.953258 -0.000000 0.945981 0.324223 0.000000 0.302157 -0.953258 -0.000000 0.945981 0.324223 0.000000 0.286364 -0.958121 0.000000 -0.286364 0.958121 -0.000000 0.286364 -0.958121 -0.000000 -0.294610 0.955618 -0.000000 0.294610 -0.955618 0.000000 -0.302157 0.953258 -0.000000 0.302157 -0.953258 0.000000 0.945981 0.324223 -0.000000 0.945981 0.324223 -0.000000 -0.945981 -0.324223 0.000000 0.958121 0.286364 0.000000 -0.958121 -0.286364 -0.000000 0.953258 0.302157 -0.000000 -0.000000 -0.000000 1.000000 -0.238199 0.751481 0.615254 0.302157 -0.953258 -0.000000 0.953258 0.302157 -0.000000 0.943176 0.332294 -0.000000 -0.943176 -0.332294 0.000000 -0.935806 -0.352515 -0.000000 0.935806 0.352515 0.000000 0.302157 -0.953258 -0.000000 -0.953258 -0.302157 -0.000000 -0.302157 0.953258 -0.000000 0.286364 -0.958121 -0.000000 -0.286364 0.958121 0.000000 -0.953258 -0.302157 -0.000000 0.296693 -0.954973 -0.000000 -0.296693 0.954973 0.000000 -0.302157 0.953258 -0.000000 -0.953258 -0.302157 -0.000000 -0.953258 -0.302157 0.000000 -0.302157 0.953258 -0.000000 -0.953258 -0.302157 -0.000000 -0.953258 -0.302157 -0.000000 0.953258 0.302157 -0.000000 -0.953258 -0.302157 0.000000 0.953258 0.302157 -0.000000 -0.302157 0.953258 -0.000000 -0.302157 0.953258 -0.000000 -0.953258 -0.302157 -0.000000 0.953258 0.302157 0.000000 0.302157 -0.953258 -0.000000 -0.302157 0.953258 -0.000000 0.953258 0.302157 -0.000000 -0.302157 0.953258 -0.000000 -0.302157 0.953258 -0.000000 0.953258 0.302157 -0.000000 -0.953258 -0.302157 -0.000000 -0.953258 -0.302157 -0.000000 0.302157 -0.953258 -0.000000 -0.302157 0.953258 0.000000 </float_array>
               <technique_common>
                  <accessor source="#mesh1-geometry-normal-array" count="112" stride="3">
                     <param name="X" type="float"/>
                     <param name="Y" type="float"/>
                     <param name="Z" type="float"/>
                  </accessor>
               </technique_common>
            </source>
            <source id="mesh1-geometry-uv">
               <float_array id="mesh1-geometry-uv-array" count="576">0.602046 0.476847 0.588152 0.472521 0.564829 0.609314 0.592128 0.456260 0.561576 0.620893 0.572585 0.786371 0.546871 0.615633 0.654082 0.456983 0.577254 0.768551 0.440985 0.409205 0.519865 0.412208 0.602124 0.655290 0.556707 0.781074 0.589591 0.772667 -135.483771 -3.864100 -147.579134 12.554681 -147.579134 -3.864100 0.541903 0.633315 1.000000 1.000000 0.000000 0.000000 1.000000 0.000000 74.993045 -3.864100 -59.608880 12.554681 -59.608880 -3.864100 98.762736 12.554681 86.601756 -3.864100 98.762736 -3.864100 108.211554 12.554681 98.762736 -3.864100 108.211554 -3.864100 -135.483771 12.554681 2.000000 0.589717 1.000000 -0.000000 2.000000 -0.000000 1.000000 -0.029312 0.436324 0.425586 0.385649 0.367434 -0.000000 -0.029312 0.000000 1.000000 0.603252 0.720527 74.993045 12.554681 -95.378734 12.554681 -144.153887 -3.864100 -95.378734 -3.864100 0.538977 0.848746 86.601756 12.554681 -0.080387 0.000000 -1.000000 1.000000 -1.000000 0.000000 98.762736 12.554681 -100.094444 -3.864100 1.000000 0.589717 0.000000 0.589717 0.000000 0.000000 -1.000000 -0.000000 0.000000 -0.000000 0.420644 0.419905 0.665809 0.676535 -144.153887 12.554681 0.388966 0.585381 0.465841 0.771002 -147.579134 -3.864100 -193.510892 12.554681 -193.510892 -3.864100 0.000000 1.000000 0.000000 0.000000 -147.579134 12.554681 -100.094444 12.554681 0.461055 0.399680 0.408173 0.707415 0.442900 0.390438 1.000000 0.589717 0.395633 0.507795 0.401138 0.486785 -70.598161 -3.864100 -74.993045 12.554681 -74.993045 -3.864100 10.978340 -0.000000 10.000000 0.589717 10.000000 -0.000000 0.650181 0.736183 -9.000000 0.589717 -10.000000 -0.000000 -9.000000 -0.000000 0.392681 0.570289 0.408039 0.751720 0.452987 0.820060 1.000000 1.000000 1.000000 0.000000 -10.000000 0.589717 144.153887 12.554681 0.388959 0.696177 0.448096 0.355699 0.450603 0.471296 0.263172 0.387821 0.250605 0.255174 10.978340 0.589717 0.383953 0.373909 -70.598161 12.554681 -6.000000 0.607942 -7.000000 0.018225 -6.000000 0.018225 144.153887 -3.864100 -8.000000 -0.000000 0.534305 0.663068 0.543831 0.501494 0.384988 0.452335 0.244514 0.290169 0.379064 0.566022 10.541553 -3.864100 -3.719165 12.554681 -3.719165 -3.864100 10.541553 12.554681 10.541553 0.000000 77.277156 -3.864100 167.291508 12.554681 77.277156 0.000000 0.365990 0.367917 110.212187 -3.864100 123.969842 12.554681 110.212187 12.554681 -7.000000 0.607942 -8.000000 0.589717 0.000000 0.000000 1.000000 0.000000 0.393285 0.616024 0.395501 0.799573 0.502795 0.783330 0.382468 0.733952 0.429901 0.541966 0.236121 0.538797 26.130601 422.802566 -45.107369 418.802566 26.130601 418.802566 0.296633 0.653758 -77.277156 -3.864100 -123.969842 -3.864100 -77.277156 12.554681 1.000000 1.000000 -0.000000 0.000000 1.000000 0.000000 77.277156 12.554681 167.291508 -3.864100 0.340173 0.466448 123.969842 -3.864100 0.224026 0.278032 -0.000000 -0.000000 -0.000000 1.000000 -0.601510 -0.000000 -17.000000 -0.000000 -18.000000 0.589717 -18.000000 -0.000000 0.476640 0.753109 0.926188 0.000000 1.000000 1.000000 0.166968 0.000000 0.471461 0.772877 58.958174 24.015748 -49.047075 12.554681 58.958174 12.554681 -78.586172 12.554681 -160.213469 24.015748 -160.213469 12.554681 0.521692 0.571943 0.356060 0.602840 22.236513 418.802566 -26.210556 422.802566 -26.210556 418.802566 -45.107369 422.802566 23.054446 418.802566 -25.598611 422.802566 -25.598611 418.802566 0.278105 0.468588 0.323728 0.775630 -123.969842 12.554681 -0.000000 1.000000 201.302881 12.554681 -3.719165 -3.864100 -70.598161 12.554681 -70.598161 -3.864100 0.187487 0.599307 0.169694 0.590189 0.182633 0.631548 -17.000000 0.589717 0.361775 0.736286 -0.000000 0.000000 -16.000000 0.589717 -17.000000 0.000000 -16.000000 0.000000 0.400507 0.727711 0.395328 0.747479 -49.047075 24.015748 160.213469 12.554681 78.586172 24.015748 78.586172 12.554681 49.047075 24.015748 25.048258 12.554681 49.047075 12.554681 -78.586172 24.015748 46.976395 422.802566 -23.207823 418.802566 46.976395 418.802566 22.236513 422.802566 23.054446 422.802566 0.276014 0.575886 0.269445 0.757521 -3.719165 12.554681 201.302881 -3.864100 0.233698 0.453774 -17.000000 0.589717 -0.000000 1.000000 160.213469 24.015748 146.796214 24.015748 0.419011 0.657089 25.048258 24.015748 0.503047 0.749629 -23.207823 422.802566 0.258908 0.641173 1.000000 0.000000 0.000000 0.000000 192.693784 -3.864100 122.265087 12.554681 122.265087 -3.864100 61.416443 -3.864100 10.541553 12.554681 10.541553 -3.864100 0.218399 0.530175 0.479601 0.741807 0.403468 0.716409 -146.796214 24.015748 -33.260829 24.015748 -58.958174 12.554681 -33.260829 12.554681 0.393620 0.648619 0.495143 0.682487 -58.958174 24.015748 0.378077 0.707939 0.518590 0.690309 -120.069285 12.554681 -148.962549 -3.864100 -120.069285 -3.864100 122.265087 -3.864100 77.951877 12.554681 77.951877 -3.864100 192.693784 12.554681 122.265087 12.554681 -148.962549 12.554681 61.416443 12.554681 0.214058 0.528727 0.212016 0.554536 52.707648 31.029455 33.260829 24.015748 52.707648 24.015748 43.005388 31.029455 25.048258 24.015748 43.005388 24.015748 -98.861763 24.015748 -139.125116 31.029455 -139.125116 24.015748 -148.962549 12.554681 -197.978297 -3.864100 -148.962549 -3.864100 -201.302881 -3.864100 -197.978297 12.554681 -201.302881 12.554681 -197.978297 -3.864100 61.416443 12.554681 77.951877 -3.864100 77.951877 12.554681 -197.978297 12.554681 139.125116 24.015748 98.861763 31.029455 98.861763 24.015748 33.260829 31.029455 98.861763 31.029455 98.861763 24.015748 -25.048258 31.029455 -43.005388 24.015748 -25.048258 24.015748 25.048258 31.029455 -98.861763 31.029455 61.416443 -3.864100 -33.260829 31.029455 -52.707648 24.015748 -33.260829 24.015748 139.125116 31.029455 -43.005388 31.029455 -52.707648 31.029455 </float_array>
               <technique_common>
                  <accessor source="#mesh1-geometry-uv-array" count="288" stride="2">
                     <param name="S" type="float"/>
                     <param name="T" type="float"/>
                  </accessor>
               </technique_common>
            </source>
            <vertices id="mesh1-geometry-vertex">
               <input semantic="POSITION" source="#mesh1-geometry-position"/>
            </vertices>
            <triangles material="material_0_1_0" count="204">
               <input semantic="VERTEX" source="#mesh1-geometry-vertex" offset="0"/>
               <input semantic="NORMAL" source="#mesh1-geometry-normal" offset="1"/>
               <input semantic="TEXCOORD" source="#mesh1-geometry-uv" offset="2" set="0"/>
               <p>0 0 0 1 0 1 2 0 2 3 1 0 1 1 1 0 1 0 0 2 0 1 2 1 4 2 3 1 0 1 5 0 4 2 0 2 2 3 2 3 3 0 0 3 0 6 2 5 2 2 2 0 2 0 1 1 1 3 1 0 7 1 1 4 0 3 8 0 6 1 0 1 1 4 1 9 4 3 4 4 3 4 2 3 10 2 7 0 2 0 1 0 1 8 0 6 5 0 4 5 5 4 11 5 2 2 5 2 6 2 5 5 2 4 2 2 2 3 3 0 2 3 2 11 3 2 6 2 5 0 2 0 12 2 8 13 1 0 7 1 1 3 1 0 3 6 0 11 6 2 7 6 1 9 4 3 1 4 1 7 4 1 14 0 9 8 0 6 4 0 3 9 7 3 14 7 9 4 7 3 4 2 3 15 2 10 10 2 7 16 2 11 0 2 0 10 2 7 17 8 6 5 8 4 8 8 6 18 2 12 8 2 6 5 2 4 11 5 2 5 5 4 19 5 4 18 2 12 5 2 4 6 2 5 11 9 2 13 9 0 3 9 0 12 2 8 0 2 0 20 2 13 7 1 1 13 1 0 22 1 1 19 6 4 7 6 1 11 6 2 7 11 1 23 11 3 9 11 3 17 6 6 9 6 3 7 6 1 14 0 9 24 0 17 8 0 6 14 2 9 15 2 10 4 2 3 14 7 9 9 7 3 25 7 9 20 2 13 0 2 0 16 2 11 5 8 4 17 8 6 19 8 4 24 14 17 17 14 6 8 14 6 18 2 12 24 2 17 8 2 6 19 15 4 28 15 2 11 15 2 13 9 0 11 9 2 28 9 2 13 19 0 23 19 3 22 19 1 23 11 3 7 11 1 22 11 1 17 6 6 7 6 1 19 6 4 17 6 6 25 6 9 9 6 3 33 0 35 24 0 17 14 0 9 14 2 9 34 2 36 15 2 10 35 22 35 14 22 9 25 22 9 16 2 11 38 2 39 20 2 13 40 8 6 19 8 4 17 8 6 17 14 6 24 14 17 41 14 17 42 2 44 24 2 17 18 2 12 28 15 2 19 15 4 43 15 4 28 19 2 21 19 5 13 19 0 13 19 0 21 19 5 30 19 8 36 19 7 23 19 3 13 19 0 26 19 10 32 19 9 23 19 3 41 6 17 25 6 9 17 6 6 47 0 56 24 0 17 33 0 35 14 22 9 35 22 35 33 22 35 47 2 56 14 2 9 33 2 35 47 2 56 34 2 36 14 2 9 48 32 35 25 32 9 32 32 9 25 32 9 48 32 35 35 32 35 41 6 17 35 6 35 25 6 9 26 19 10 23 19 3 36 19 7 37 19 36 32 19 9 26 19 10 38 2 39 16 2 11 39 2 57 13 19 0 27 19 11 36 19 7 19 8 4 40 8 6 43 8 4 41 14 17 40 14 6 17 14 6 24 33 17 50 33 59 41 33 17 51 2 60 24 2 17 42 2 44 43 19 4 21 19 5 28 19 2 43 19 4 44 19 12 21 19 5 13 19 0 30 19 8 29 19 13 56 0 72 24 0 17 47 0 56 35 37 35 47 37 56 33 37 35 57 2 73 34 2 36 47 2 56 32 19 9 60 19 56 48 19 35 48 37 35 61 37 56 35 37 35 41 6 17 61 6 56 35 6 35 37 19 36 60 19 56 32 19 9 38 2 39 39 2 57 62 2 80 13 19 0 29 19 13 27 19 11 27 19 11 63 19 80 49 19 57 40 19 6 44 19 12 43 19 4 40 14 6 41 14 17 65 14 17 50 33 59 24 33 17 66 33 59 67 43 59 41 43 17 50 43 59 68 6 84 41 6 17 50 6 59 69 2 85 24 2 17 51 2 60 42 2 44 70 2 86 51 2 60 65 19 17 52 19 44 44 19 12 27 19 11 29 19 13 54 19 39 72 0 84 24 0 17 56 0 72 47 2 56 56 2 72 57 2 73 47 46 56 73 46 72 56 46 72 47 37 56 35 37 35 61 37 56 57 2 73 58 2 97 34 2 36 61 37 56 48 37 35 60 37 56 41 6 17 73 6 72 61 6 56 37 19 36 75 19 73 60 19 56 63 19 80 27 19 11 54 19 39 65 19 17 44 19 12 40 19 6 41 43 17 67 43 59 65 43 17 24 0 17 72 0 84 66 0 59 69 2 85 66 2 59 24 2 17 72 51 84 50 51 59 66 51 59 68 52 84 67 52 59 50 52 59 41 6 17 68 6 84 73 6 72 50 51 59 72 51 84 68 51 84 65 19 17 78 19 104 52 19 44 56 0 72 80 0 108 72 0 84 73 46 72 47 46 56 61 46 56 73 57 72 80 57 108 56 57 72 57 2 73 83 2 117 58 2 97 74 19 97 75 19 73 37 19 36 81 59 72 61 59 56 60 59 56 61 59 56 81 59 72 73 59 72 60 19 56 75 19 73 81 19 72 67 19 59 88 19 125 65 19 17 72 2 84 66 2 59 80 2 108 89 2 126 66 2 59 69 2 85 67 52 59 68 52 84 90 52 84 73 6 72 68 6 84 91 6 108 72 62 84 91 62 108 68 62 84 52 19 44 76 19 60 77 19 86 65 19 17 88 19 125 78 19 104 93 19 127 52 19 44 78 19 104 96 2 134 56 2 72 80 2 108 91 62 108 72 62 84 80 62 108 98 67 108 73 67 72 81 67 72 80 57 108 73 57 72 91 57 108 83 2 117 57 2 73 97 2 143 84 19 117 75 19 73 74 19 97 98 19 108 88 19 125 67 19 59 89 2 126 80 2 108 66 2 59 68 62 84 98 62 108 90 62 84 90 19 84 98 19 108 67 19 59 98 62 108 68 62 84 91 62 108 73 67 72 98 67 108 91 67 108 102 73 152 92 73 85 76 73 60 76 19 60 52 19 44 104 19 156 104 19 156 52 19 44 93 19 127 96 2 134 99 2 172 56 2 72 96 2 134 80 2 108 110 2 173 81 19 72 112 19 134 98 19 108 82 19 172 112 19 134 81 19 72 75 19 73 84 19 117 111 19 143 88 19 125 98 19 108 115 19 184 80 2 108 89 2 126 110 2 173 116 73 189 92 73 85 102 73 152 102 73 152 76 73 60 104 73 156 117 19 190 101 19 126 92 19 85 96 2 134 120 2 204 99 2 172 110 2 173 121 2 205 96 2 134 98 19 108 112 19 134 122 19 173 123 19 204 112 19 134 82 19 172 113 19 208 123 19 204 82 19 172 98 19 108 122 19 173 115 19 184 92 73 85 116 73 189 117 73 190 103 89 152 116 89 189 102 89 152 104 90 156 103 90 152 102 90 152 115 19 184 101 19 126 117 19 190 105 73 125 127 73 213 118 73 104 129 73 215 106 73 127 118 73 104 120 2 204 96 2 134 130 2 217 120 2 204 124 2 208 99 2 172 122 19 173 112 19 134 131 19 205 112 19 134 123 19 204 132 19 217 134 19 226 123 19 204 113 19 208 101 19 126 115 19 184 122 19 173 117 95 190 116 95 189 126 95 189 116 89 189 103 89 152 126 89 189 135 96 227 102 96 152 103 96 152 106 73 127 103 73 152 125 73 156 103 73 152 136 73 228 126 73 189 105 73 125 138 73 233 127 73 213 118 73 104 127 73 213 139 73 234 140 73 236 105 73 125 128 73 184 135 73 227 106 73 127 129 73 215 129 73 215 118 73 104 141 73 237 120 2 204 142 2 226 124 2 208 124 2 208 142 2 226 133 2 248 123 19 204 134 19 226 144 19 249 113 19 208 143 19 248 134 19 226 145 101 228 126 101 189 116 101 189 102 96 152 135 96 227 146 96 227 103 73 152 106 73 127 135 73 227 135 73 227 127 73 213 103 73 152 136 73 228 103 73 152 127 73 213 126 101 189 145 101 228 136 101 228 136 73 228 137 73 190 126 73 189 105 73 125 140 73 236 138 73 233 139 73 234 127 73 213 135 73 227 118 73 104 139 73 234 141 73 237 137 73 190 140 73 236 128 73 184 142 2 226 120 2 204 149 2 249 140 73 236 137 73 190 136 73 228 147 73 233 150 73 228 151 73 213 148 73 215 152 73 234 153 73 227 152 73 234 148 73 215 154 73 237 150 73 228 147 73 233 155 73 236 </p>
            </triangles>
            <triangles material="material_3_5_0" count="74">
               <input semantic="VERTEX" source="#mesh1-geometry-vertex" offset="0"/>
               <input semantic="NORMAL" source="#mesh1-geometry-normal" offset="1"/>
               <input semantic="TEXCOORD" source="#mesh1-geometry-uv" offset="2" set="0"/>
               <p>12 10 14 21 10 15 6 10 16 10 13 21 27 13 22 16 13 23 21 16 24 18 16 25 6 16 26 29 17 27 12 17 28 20 17 29 21 10 15 12 10 14 30 10 30 27 13 22 10 13 21 36 13 40 27 24 41 39 24 42 16 24 43 18 16 25 21 16 24 44 16 45 12 17 28 29 17 27 30 17 49 38 27 50 29 27 30 20 27 14 39 24 42 27 24 41 49 24 58 18 34 61 52 34 62 42 34 63 52 34 62 18 34 61 44 34 66 29 27 30 38 27 50 54 27 67 58 38 74 37 38 75 34 38 76 63 27 67 39 27 23 49 27 22 38 45 29 63 45 90 54 45 27 37 38 75 58 38 74 74 38 98 39 27 23 63 27 67 62 27 50 63 45 90 38 45 29 62 45 102 56 55 109 75 55 110 57 55 111 81 55 112 56 55 109 73 55 113 56 56 114 82 56 115 73 56 116 58 58 118 84 58 119 74 58 120 75 55 110 56 55 109 81 55 112 73 56 116 82 56 115 81 56 141 82 56 115 56 56 114 99 56 142 84 58 119 58 58 118 83 58 144 105 75 157 78 75 158 88 75 159 78 76 160 106 76 161 93 76 162 99 81 142 113 81 176 82 81 115 97 82 177 84 82 178 83 82 179 78 75 158 105 75 157 118 75 191 115 86 192 105 86 193 88 86 194 106 44 195 104 44 196 93 44 197 106 76 161 78 76 160 118 76 198 84 82 178 97 82 177 111 82 206 113 81 176 99 81 142 124 81 207 125 91 211 103 91 212 104 91 192 105 86 193 115 86 192 128 86 211 104 44 196 106 44 195 125 44 214 121 93 220 112 93 221 96 93 222 133 94 223 113 94 224 124 94 225 117 97 162 126 97 229 137 97 161 137 98 230 115 98 231 117 98 232 115 98 231 137 98 230 128 98 235 112 99 238 130 99 239 96 99 240 130 100 241 123 100 242 120 100 243 112 93 221 121 93 220 131 93 244 123 100 242 130 100 241 132 100 245 130 99 239 112 99 238 132 99 246 113 94 224 133 94 223 143 94 247 147 102 250 127 102 251 138 102 252 148 103 253 135 103 254 129 103 255 141 104 256 148 104 257 129 104 258 123 105 259 149 105 260 120 105 261 133 106 262 134 106 263 143 106 264 134 106 263 133 106 262 142 106 265 134 54 266 149 54 267 144 54 268 149 105 260 123 105 259 144 105 269 127 107 256 150 107 257 136 107 258 140 108 270 147 108 271 138 108 272 127 102 251 147 102 250 151 102 273 135 109 270 152 109 274 139 109 275 152 110 276 141 110 277 139 110 278 135 103 254 148 103 253 153 103 279 148 104 257 141 104 256 154 104 280 149 54 267 134 54 266 142 54 281 150 107 257 127 107 256 151 107 280 150 111 282 140 111 283 136 111 284 147 108 271 140 108 270 155 108 285 152 109 274 135 109 270 153 109 285 141 110 277 152 110 276 154 110 286 140 111 283 150 111 282 155 111 287 </p>
            </triangles>
            <triangles material="material_12_14_0" count="2">
               <input semantic="VERTEX" source="#mesh1-geometry-vertex" offset="0"/>
               <input semantic="NORMAL" source="#mesh1-geometry-normal" offset="1"/>
               <input semantic="TEXCOORD" source="#mesh1-geometry-uv" offset="2" set="0"/>
               <p>26 12 18 10 12 19 15 12 20 10 12 19 26 12 18 36 12 38 </p>
            </triangles>
            <triangles material="material_0_1_8" count="54">
               <input semantic="VERTEX" source="#mesh1-geometry-vertex" offset="0"/>
               <input semantic="NORMAL" source="#mesh1-geometry-normal" offset="1"/>
               <input semantic="TEXCOORD" source="#mesh1-geometry-uv" offset="2" set="0"/>
               <p>13 1 0 22 1 1 31 1 0 23 20 3 9 20 3 32 20 9 25 20 9 32 20 9 9 20 3 13 25 0 31 25 0 28 25 2 45 1 1 31 1 0 22 1 1 23 28 3 46 28 3 22 28 1 23 30 3 32 30 9 46 30 3 43 25 4 28 25 2 53 25 4 53 25 4 28 25 2 31 25 0 45 35 1 53 35 4 31 35 0 45 28 1 22 28 1 46 28 3 55 30 9 46 30 3 32 30 9 48 39 35 59 39 35 32 39 9 40 41 6 43 41 4 64 41 6 53 41 4 64 41 6 43 41 4 53 35 4 45 35 1 64 35 6 45 35 1 46 35 3 64 35 6 46 35 3 55 35 9 71 35 93 55 39 9 32 39 9 59 39 35 48 47 35 60 47 56 59 47 35 40 49 6 64 49 6 65 49 17 64 35 6 46 35 3 79 35 105 55 35 9 59 35 35 71 35 93 79 35 105 46 35 3 71 35 93 85 47 56 59 47 35 60 47 56 86 49 17 65 49 17 64 49 6 67 60 59 65 60 17 87 60 59 64 35 6 79 35 105 86 35 17 71 35 93 59 35 35 94 35 129 79 63 105 71 63 93 95 63 105 85 35 56 94 35 129 59 35 35 85 68 56 60 68 56 100 68 108 81 68 72 100 68 108 60 68 56 86 60 17 87 60 59 65 60 17 67 70 59 87 70 59 90 70 84 79 35 105 107 35 163 86 35 17 94 77 129 108 77 129 71 77 93 109 63 93 95 63 105 71 63 93 79 79 105 95 79 105 107 79 163 98 68 108 100 68 108 81 68 72 85 35 56 114 35 84 94 35 129 100 35 108 114 35 84 85 35 56 87 35 59 86 35 17 114 35 84 114 70 84 90 70 84 87 70 59 98 84 108 90 84 84 100 84 108 107 35 163 94 35 129 86 35 17 94 87 129 107 87 163 108 87 129 109 77 93 71 77 93 108 77 129 95 35 105 109 35 93 119 35 163 119 79 163 107 79 163 95 79 105 94 35 129 114 35 84 86 35 17 114 84 84 100 84 108 90 84 84 119 87 163 108 87 129 107 87 163 108 35 129 119 35 163 109 35 93 </p>
            </triangles>
            <triangles material="material_1_2_8" count="16">
               <input semantic="VERTEX" source="#mesh1-geometry-vertex" offset="0"/>
               <input semantic="NORMAL" source="#mesh1-geometry-normal" offset="1"/>
               <input semantic="TEXCOORD" source="#mesh1-geometry-uv" offset="2" set="0"/>
               <p>31 18 31 22 18 32 13 18 33 22 18 32 31 18 31 45 18 51 22 29 20 46 29 52 23 29 53 46 29 52 22 29 20 45 29 71 32 40 77 59 40 78 48 40 79 64 42 81 43 42 82 40 42 83 43 42 82 64 42 81 53 42 89 59 40 78 32 40 77 55 40 96 59 48 99 60 48 100 48 48 101 65 50 103 64 50 81 40 50 83 60 48 100 59 48 99 85 48 121 64 50 81 65 50 103 86 50 122 90 71 149 87 71 150 67 71 151 87 71 150 90 71 149 114 71 183 100 85 186 90 85 187 98 85 188 90 85 187 100 85 186 114 85 209 </p>
            </triangles>
            <triangles material="material_2_4_8" count="10">
               <input semantic="VERTEX" source="#mesh1-geometry-vertex" offset="0"/>
               <input semantic="NORMAL" source="#mesh1-geometry-normal" offset="1"/>
               <input semantic="TEXCOORD" source="#mesh1-geometry-uv" offset="2" set="0"/>
               <p>32 21 19 9 21 34 23 21 20 9 21 34 32 21 19 25 21 37 28 26 46 31 26 47 13 26 48 46 31 38 32 31 54 23 31 55 53 26 64 28 26 46 43 26 65 31 26 47 28 26 46 53 26 64 32 31 54 46 31 38 55 31 47 100 69 47 60 69 146 85 69 147 60 69 146 100 69 47 81 69 148 81 69 148 100 69 47 98 69 54 </p>
            </triangles>
            <triangles material="material_4_6_0" count="2">
               <input semantic="VERTEX" source="#mesh1-geometry-vertex" offset="0"/>
               <input semantic="NORMAL" source="#mesh1-geometry-normal" offset="1"/>
               <input semantic="TEXCOORD" source="#mesh1-geometry-uv" offset="2" set="0"/>
               <p>15 23 19 37 23 18 26 23 38 37 23 18 15 23 19 34 23 20 </p>
            </triangles>
            <triangles material="material_11_13_8" count="18">
               <input semantic="VERTEX" source="#mesh1-geometry-vertex" offset="0"/>
               <input semantic="NORMAL" source="#mesh1-geometry-normal" offset="1"/>
               <input semantic="TEXCOORD" source="#mesh1-geometry-uv" offset="2" set="0"/>
               <p>31 36 68 53 36 69 45 36 70 64 36 91 45 36 70 53 36 69 64 36 91 46 36 92 45 36 70 71 36 94 55 36 95 46 36 92 79 36 106 46 36 92 64 36 91 71 36 94 59 36 107 55 36 95 71 36 94 46 36 92 79 36 106 86 36 128 79 36 106 64 36 91 94 36 130 59 36 107 71 36 94 59 36 107 94 36 130 85 36 145 86 36 128 107 36 164 79 36 106 94 36 130 114 36 180 85 36 145 85 36 145 114 36 180 100 36 181 114 36 180 86 36 128 87 36 182 86 36 128 94 36 130 107 36 164 119 36 164 109 36 94 95 36 106 86 36 128 114 36 180 94 36 130 109 36 94 119 36 164 108 36 130 </p>
            </triangles>
            <triangles material="material_10_12_0" count="2">
               <input semantic="VERTEX" source="#mesh1-geometry-vertex" offset="0"/>
               <input semantic="NORMAL" source="#mesh1-geometry-normal" offset="1"/>
               <input semantic="TEXCOORD" source="#mesh1-geometry-uv" offset="2" set="0"/>
               <p>52 44 87 70 44 19 42 44 88 70 44 19 52 44 87 77 44 38 </p>
            </triangles>
            <triangles material="material_8_10_0" count="2">
               <input semantic="VERTEX" source="#mesh1-geometry-vertex" offset="0"/>
               <input semantic="NORMAL" source="#mesh1-geometry-normal" offset="1"/>
               <input semantic="TEXCOORD" source="#mesh1-geometry-uv" offset="2" set="0"/>
               <p>76 53 18 69 53 19 51 53 20 69 53 19 76 53 18 92 53 38 </p>
            </triangles>
            <triangles material="material_9_11_0" count="2">
               <input semantic="VERTEX" source="#mesh1-geometry-vertex" offset="0"/>
               <input semantic="NORMAL" source="#mesh1-geometry-normal" offset="1"/>
               <input semantic="TEXCOORD" source="#mesh1-geometry-uv" offset="2" set="0"/>
               <p>70 54 20 76 54 38 51 54 19 76 54 38 70 54 20 77 54 18 </p>
            </triangles>
            <triangles material="material_2_3_8" count="2">
               <input semantic="VERTEX" source="#mesh1-geometry-vertex" offset="0"/>
               <input semantic="NORMAL" source="#mesh1-geometry-normal" offset="1"/>
               <input semantic="TEXCOORD" source="#mesh1-geometry-uv" offset="2" set="0"/>
               <p>87 61 18 65 61 123 67 61 124 65 61 123 87 61 18 86 61 38 </p>
            </triangles>
            <triangles material="material_3_5_8" count="10">
               <input semantic="VERTEX" source="#mesh1-geometry-vertex" offset="0"/>
               <input semantic="NORMAL" source="#mesh1-geometry-normal" offset="1"/>
               <input semantic="TEXCOORD" source="#mesh1-geometry-uv" offset="2" set="0"/>
               <p>95 64 131 71 64 132 79 64 133 57 65 135 97 65 136 75 65 137 71 78 165 108 78 166 94 78 167 71 64 132 95 64 131 109 64 168 107 80 169 95 80 170 79 80 171 111 65 174 75 65 137 97 65 136 108 88 199 107 88 200 94 88 201 108 78 166 71 78 165 109 78 202 95 80 170 107 80 169 119 80 203 107 88 200 108 88 199 119 88 216 </p>
            </triangles>
            <triangles material="material_5_7_8" count="2">
               <input semantic="VERTEX" source="#mesh1-geometry-vertex" offset="0"/>
               <input semantic="NORMAL" source="#mesh1-geometry-normal" offset="1"/>
               <input semantic="TEXCOORD" source="#mesh1-geometry-uv" offset="2" set="0"/>
               <p>75 66 138 97 66 139 57 66 140 97 66 139 75 66 138 111 66 175 </p>
            </triangles>
            <triangles material="material_7_9_0" count="2">
               <input semantic="VERTEX" source="#mesh1-geometry-vertex" offset="0"/>
               <input semantic="NORMAL" source="#mesh1-geometry-normal" offset="1"/>
               <input semantic="TEXCOORD" source="#mesh1-geometry-uv" offset="2" set="0"/>
               <p>69 72 20 101 72 38 89 72 19 101 72 38 69 72 20 92 72 18 </p>
            </triangles>
            <triangles material="material_14_16_0" count="4">
               <input semantic="VERTEX" source="#mesh1-geometry-vertex" offset="0"/>
               <input semantic="NORMAL" source="#mesh1-geometry-normal" offset="1"/>
               <input semantic="TEXCOORD" source="#mesh1-geometry-uv" offset="2" set="0"/>
               <p>76 74 153 103 74 154 92 74 155 103 74 154 76 74 153 104 74 88 92 74 155 103 74 154 117 74 19 117 74 19 103 74 154 126 74 38 </p>
            </triangles>
            <triangles material="material_6_8_0" count="2">
               <input semantic="VERTEX" source="#mesh1-geometry-vertex" offset="0"/>
               <input semantic="NORMAL" source="#mesh1-geometry-normal" offset="1"/>
               <input semantic="TEXCOORD" source="#mesh1-geometry-uv" offset="2" set="0"/>
               <p>101 83 18 110 83 185 89 83 20 110 83 185 101 83 18 122 83 210 </p>
            </triangles>
            <triangles material="material_13_15_0" count="2">
               <input semantic="VERTEX" source="#mesh1-geometry-vertex" offset="0"/>
               <input semantic="NORMAL" source="#mesh1-geometry-normal" offset="1"/>
               <input semantic="TEXCOORD" source="#mesh1-geometry-uv" offset="2" set="0"/>
               <p>110 92 218 131 92 38 121 92 219 131 92 38 110 92 218 122 92 18 </p>
            </triangles>
         </mesh>
      </geometry>
      <geometry id="mesh2-geometry" name="mesh2-geometry">
         <mesh>
            <source id="mesh2-geometry-position">
               <float_array id="mesh2-geometry-position-array" count="24">-19.548629 7.676216 343.907600 -19.548629 7.676216 287.214800 -19.825257 8.581024 343.907600 -18.643822 7.952843 343.907600 -19.825257 8.581024 287.214800 -18.920449 8.857651 343.907600 -18.643822 7.952843 287.214800 -18.920449 8.857651 287.214800 </float_array>
               <technique_common>
                  <accessor source="#mesh2-geometry-position-array" count="8" stride="3">
                     <param name="X" type="float"/>
                     <param name="Y" type="float"/>
                     <param name="Z" type="float"/>
                  </accessor>
               </technique_common>
            </source>
            <source id="mesh2-geometry-normal">
               <float_array id="mesh2-geometry-normal-array" count="27">0.956305 0.292372 -0.000000 -0.956305 -0.292372 0.000000 -0.292372 0.956305 -0.000000 0.292372 -0.956305 0.000000 0.000000 0.000000 1.000000 0.292372 -0.956305 -0.000000 -0.292372 0.956305 0.000000 -0.956305 -0.292372 -0.000000 0.956305 0.292372 0.000000 </float_array>
               <technique_common>
                  <accessor source="#mesh2-geometry-normal-array" count="9" stride="3">
                     <param name="X" type="float"/>
                     <param name="Y" type="float"/>
                     <param name="Z" type="float"/>
                  </accessor>
               </technique_common>
            </source>
            <source id="mesh2-geometry-uv">
               <float_array id="mesh2-geometry-uv-array" count="72">1.483446 237.615658 1.483446 198.754946 1.173029 237.615658 -30.626460 501.469233 -28.557016 418.802566 -28.557016 501.469233 83.019556 237.615658 83.329972 237.615658 83.019556 198.754946 -35.980181 418.802566 -33.910737 501.469233 -35.980181 501.469233 1.173029 198.754946 -30.626460 418.802566 -42.757282 11.193082 -41.383309 12.915793 -43.362329 12.512429 -40.778262 11.596447 83.329972 198.754946 -33.910737 418.802566 -83.019556 198.754946 -83.329972 198.754946 -83.019556 237.615658 35.980181 501.469233 33.910737 418.802566 35.980181 418.802566 -83.329972 237.615658 33.910737 501.469233 -1.173029 237.615658 -1.173029 198.754946 -1.483446 237.615658 28.557016 501.469233 30.626460 418.802566 30.626460 501.469233 -1.483446 198.754946 28.557016 418.802566 </float_array>
               <technique_common>
                  <accessor source="#mesh2-geometry-uv-array" count="36" stride="2">
                     <param name="S" type="float"/>
                     <param name="T" type="float"/>
                  </accessor>
               </technique_common>
            </source>
            <vertices id="mesh2-geometry-vertex">
               <input semantic="POSITION" source="#mesh2-geometry-position"/>
            </vertices>
            <triangles material="material_15_17_8" count="8">
               <input semantic="VERTEX" source="#mesh2-geometry-vertex" offset="0"/>
               <input semantic="NORMAL" source="#mesh2-geometry-normal" offset="1"/>
               <input semantic="TEXCOORD" source="#mesh2-geometry-uv" offset="2" set="0"/>
               <p>0 0 0 1 0 1 2 0 2 0 2 6 3 2 7 1 2 8 4 0 12 2 0 2 1 0 1 6 2 18 1 2 8 3 2 7 4 5 20 7 5 21 2 5 22 5 5 26 2 5 22 7 5 21 5 7 28 7 7 29 3 7 30 6 7 34 3 7 30 7 7 29 </p>
            </triangles>
            <triangles material="material_3_5_8" count="8">
               <input semantic="VERTEX" source="#mesh2-geometry-vertex" offset="0"/>
               <input semantic="NORMAL" source="#mesh2-geometry-normal" offset="1"/>
               <input semantic="TEXCOORD" source="#mesh2-geometry-uv" offset="2" set="0"/>
               <p>2 1 3 1 1 4 0 1 5 1 3 9 3 3 10 0 3 11 1 1 4 2 1 3 4 1 13 3 3 10 1 3 9 6 3 19 2 6 23 7 6 24 4 6 25 7 6 24 2 6 23 5 6 27 3 8 31 7 8 32 5 8 33 7 8 32 3 8 31 6 8 35 </p>
            </triangles>
            <triangles material="material_3_5_0" count="2">
               <input semantic="VERTEX" source="#mesh2-geometry-vertex" offset="0"/>
               <input semantic="NORMAL" source="#mesh2-geometry-normal" offset="1"/>
               <input semantic="TEXCOORD" source="#mesh2-geometry-uv" offset="2" set="0"/>
               <p>0 4 14 5 4 15 2 4 16 5 4 15 0 4 14 3 4 17 </p>
            </triangles>
         </mesh>
      </geometry>
      <geometry id="mesh3-geometry" name="mesh3-geometry">
         <mesh>
            <source id="mesh3-geometry-position">
               <float_array id="mesh3-geometry-position-array" count="36">2.224806 -19.853876 258.868400 1.319999 -20.130503 258.868400 2.224806 -19.853876 287.214800 1.319999 -20.130503 287.214800 1.948179 -18.949068 258.868400 2.224806 -19.853876 315.561200 1.043371 -19.225695 315.561200 1.319999 -20.130503 315.561200 1.043371 -19.225695 258.868400 1.948179 -18.949068 315.561200 1.043371 -19.225695 287.214800 1.948179 -18.949068 287.214800 </float_array>
               <technique_common>
                  <accessor source="#mesh3-geometry-position-array" count="12" stride="3">
                     <param name="X" type="float"/>
                     <param name="Y" type="float"/>
                     <param name="Z" type="float"/>
                  </accessor>
               </technique_common>
            </source>
            <source id="mesh3-geometry-normal">
               <float_array id="mesh3-geometry-normal-array" count="30">-0.292372 0.956305 -0.000000 0.292372 -0.956305 0.000000 -0.956305 -0.292372 -0.000000 0.956305 0.292372 0.000000 0.956305 0.292372 -0.000000 -0.956305 -0.292372 0.000000 -0.000000 -0.000000 -1.000000 0.000000 0.000000 1.000000 0.292372 -0.956305 -0.000000 -0.292372 0.956305 0.000000 </float_array>
               <technique_common>
                  <accessor source="#mesh3-geometry-normal-array" count="10" stride="3">
                     <param name="X" type="float"/>
                     <param name="Y" type="float"/>
                     <param name="Z" type="float"/>
                  </accessor>
               </technique_common>
            </source>
            <source id="mesh3-geometry-uv">
               <float_array id="mesh3-geometry-uv-array" count="112">83.329972 198.754946 83.019556 198.754946 83.329972 218.185302 -8.042691 418.802566 -10.112136 377.469233 -8.042691 377.469233 83.019556 218.185302 -10.112136 418.802566 -1.483446 198.754946 -1.483446 218.185302 -1.173029 198.754946 -40.880744 377.469233 -42.950188 418.802566 -42.950188 377.469233 83.329972 237.615658 -8.042691 460.135900 1.483446 198.754946 1.173029 237.615658 1.483446 218.185302 42.950188 418.802566 40.880744 460.135900 42.950188 377.469233 -1.483446 237.615658 -42.950188 460.135900 83.019556 237.615658 -10.112136 460.135900 1.173029 198.754946 40.880744 377.469233 1.483446 237.615658 42.950188 460.135900 -1.173029 237.615658 -40.880744 460.135900 80.122566 47.938031 79.825713 47.748414 80.031809 48.558242 4.261109 -27.630604 2.887136 -29.353315 4.866156 -28.949950 1.173029 218.185302 40.880744 418.802566 79.734956 48.368624 2.282089 -28.033968 -1.173029 218.185302 -40.880744 418.802566 -83.019556 237.615658 -83.019556 218.185302 -83.329972 218.185302 8.042691 418.802566 10.112136 418.802566 10.112136 460.135900 -83.019556 198.754946 -83.329972 198.754946 8.042691 377.469233 10.112136 377.469233 -83.329972 237.615658 8.042691 460.135900 </float_array>
               <technique_common>
                  <accessor source="#mesh3-geometry-uv-array" count="56" stride="2">
                     <param name="S" type="float"/>
                     <param name="T" type="float"/>
                  </accessor>
               </technique_common>
            </source>
            <vertices id="mesh3-geometry-vertex">
               <input semantic="POSITION" source="#mesh3-geometry-position"/>
            </vertices>
            <triangles material="material_15_17_8" count="18">
               <input semantic="VERTEX" source="#mesh3-geometry-vertex" offset="0"/>
               <input semantic="NORMAL" source="#mesh3-geometry-normal" offset="1"/>
               <input semantic="TEXCOORD" source="#mesh3-geometry-uv" offset="2" set="0"/>
               <p>0 0 0 1 0 1 2 0 2 3 0 6 2 0 2 1 0 1 0 2 8 2 2 9 4 2 10 5 0 14 2 0 2 3 0 6 1 4 16 6 4 17 3 4 18 5 2 22 4 2 10 2 2 9 7 0 24 5 0 14 3 0 6 8 4 26 6 4 17 1 4 16 7 4 28 3 4 18 6 4 17 9 2 30 4 2 10 5 2 22 5 6 32 7 6 33 9 6 34 10 4 38 6 4 17 8 4 26 6 6 40 9 6 34 7 6 33 11 2 42 4 2 10 9 2 30 6 8 44 10 8 45 11 8 46 8 8 50 4 8 51 10 8 45 9 8 54 6 8 44 11 8 46 11 8 46 10 8 45 4 8 51 </p>
            </triangles>
            <triangles material="material_3_5_8" count="18">
               <input semantic="VERTEX" source="#mesh3-geometry-vertex" offset="0"/>
               <input semantic="NORMAL" source="#mesh3-geometry-normal" offset="1"/>
               <input semantic="TEXCOORD" source="#mesh3-geometry-uv" offset="2" set="0"/>
               <p>2 1 3 1 1 4 0 1 5 1 1 4 2 1 3 3 1 7 4 3 11 2 3 12 0 3 13 3 1 7 2 1 3 5 1 15 3 5 19 6 5 20 1 5 21 2 3 12 4 3 11 5 3 23 3 1 7 5 1 15 7 1 25 1 5 21 6 5 20 8 5 27 6 5 20 3 5 19 7 5 29 5 3 23 4 3 11 9 3 31 9 7 35 7 7 36 5 7 37 8 5 27 6 5 20 10 5 39 7 7 36 9 7 35 6 7 41 9 3 31 4 3 11 11 3 43 11 9 47 10 9 48 6 9 49 10 9 48 4 9 52 8 9 53 11 9 47 6 9 49 9 9 55 4 9 52 10 9 48 11 9 47 </p>
            </triangles>
         </mesh>
      </geometry>
      <geometry id="mesh4-geometry" name="mesh4-geometry">
         <mesh>
            <source id="mesh4-geometry-position">
               <float_array id="mesh4-geometry-position-array" count="36">11.105413 16.959500 268.794332 12.010220 17.236128 268.794332 11.105413 16.959500 297.140732 12.010220 17.236128 297.140732 11.105413 16.959500 325.487132 12.010220 17.236128 325.487132 11.382040 16.054692 268.794332 12.286848 16.331320 325.487132 11.382040 16.054692 297.140732 11.382040 16.054692 325.487132 12.286848 16.331320 297.140732 12.286848 16.331320 268.794332 </float_array>
               <technique_common>
                  <accessor source="#mesh4-geometry-position-array" count="12" stride="3">
                     <param name="X" type="float"/>
                     <param name="Y" type="float"/>
                     <param name="Z" type="float"/>
                  </accessor>
               </technique_common>
            </source>
            <source id="mesh4-geometry-normal">
               <float_array id="mesh4-geometry-normal-array" count="30">0.292372 -0.956305 0.000000 -0.292372 0.956305 -0.000000 0.956305 0.292372 0.000000 -0.956305 -0.292372 -0.000000 -0.956305 -0.292372 0.000000 0.956305 0.292372 -0.000000 -0.000000 -0.000000 -1.000000 0.000000 0.000000 1.000000 -0.292372 0.956305 0.000000 0.292372 -0.956305 -0.000000 </float_array>
               <technique_common>
                  <accessor source="#mesh4-geometry-normal-array" count="10" stride="3">
                     <param name="X" type="float"/>
                     <param name="Y" type="float"/>
                     <param name="Z" type="float"/>
                  </accessor>
               </technique_common>
            </source>
            <source id="mesh4-geometry-uv">
               <float_array id="mesh4-geometry-uv-array" count="112">-83.019556 198.754946 -83.329972 198.754946 -83.019556 218.185302 -34.074009 433.276075 -36.143454 391.942741 -34.074009 391.942741 -83.329972 218.185302 -36.143454 433.276075 1.173029 218.185302 1.173029 237.615658 1.173029 198.754946 -28.371702 391.942741 -28.371702 474.609408 -28.371702 433.276075 -83.019556 237.615658 -34.074009 474.609408 -1.173029 218.185302 -1.173029 198.754946 -1.173029 237.615658 28.371702 474.609408 28.371702 391.942741 28.371702 433.276075 1.483446 198.754946 -26.302258 391.942741 -83.329972 237.615658 -36.143454 474.609408 -1.483446 237.615658 26.302258 474.609408 1.483446 218.185302 -26.302258 433.276075 79.734956 48.368624 80.031809 48.558242 79.825713 47.748414 24.895101 23.410167 26.269074 25.132878 24.290054 24.729513 -1.483446 218.185302 26.302258 433.276075 80.122566 47.938031 26.874121 23.813532 1.483446 237.615658 -26.302258 474.609408 83.019556 218.185302 83.329972 218.185302 83.019556 198.754946 34.074009 391.942741 36.143454 433.276075 34.074009 433.276075 -1.483446 198.754946 26.302258 391.942741 83.329972 237.615658 36.143454 474.609408 83.019556 237.615658 34.074009 474.609408 83.329972 198.754946 36.143454 391.942741 </float_array>
               <technique_common>
                  <accessor source="#mesh4-geometry-uv-array" count="56" stride="2">
                     <param name="S" type="float"/>
                     <param name="T" type="float"/>
                  </accessor>
               </technique_common>
            </source>
            <vertices id="mesh4-geometry-vertex">
               <input semantic="POSITION" source="#mesh4-geometry-position"/>
            </vertices>
            <triangles material="material_15_17_8" count="18">
               <input semantic="VERTEX" source="#mesh4-geometry-vertex" offset="0"/>
               <input semantic="NORMAL" source="#mesh4-geometry-normal" offset="1"/>
               <input semantic="TEXCOORD" source="#mesh4-geometry-uv" offset="2" set="0"/>
               <p>0 0 0 1 0 1 2 0 2 3 0 6 2 0 2 1 0 1 2 2 8 4 2 9 0 2 10 4 0 14 2 0 2 3 0 6 3 4 16 1 4 17 5 4 18 0 2 10 4 2 9 6 2 22 5 0 24 4 0 14 3 0 6 5 4 18 1 4 17 7 4 26 6 2 22 4 2 9 8 2 28 4 6 30 5 6 31 9 6 32 7 4 26 1 4 17 10 4 36 7 6 38 9 6 32 5 6 31 9 2 40 8 2 28 4 2 9 8 8 42 10 8 43 6 8 44 11 4 48 10 4 36 1 4 17 7 8 50 10 8 43 8 8 42 9 8 52 7 8 50 8 8 42 11 8 54 6 8 44 10 8 43 </p>
            </triangles>
            <triangles material="material_3_5_8" count="18">
               <input semantic="VERTEX" source="#mesh4-geometry-vertex" offset="0"/>
               <input semantic="NORMAL" source="#mesh4-geometry-normal" offset="1"/>
               <input semantic="TEXCOORD" source="#mesh4-geometry-uv" offset="2" set="0"/>
               <p>2 1 3 1 1 4 0 1 5 1 1 4 2 1 3 3 1 7 0 3 11 4 3 12 2 3 13 3 1 7 2 1 3 4 1 15 5 5 19 1 5 20 3 5 21 6 3 23 4 3 12 0 3 11 3 1 7 4 1 15 5 1 25 7 5 27 1 5 20 5 5 19 8 3 29 4 3 12 6 3 23 9 7 33 5 7 34 4 7 35 10 5 37 1 5 20 7 5 27 5 7 34 9 7 33 7 7 39 4 3 12 8 3 29 9 3 41 6 9 45 10 9 46 8 9 47 1 5 20 10 5 37 11 5 49 8 9 47 10 9 46 7 9 51 8 9 47 7 9 51 9 9 53 10 9 46 6 9 45 11 9 55 </p>
            </triangles>
         </mesh>
      </geometry>
   </library_geometries>
   <library_cameras>
      <camera id="Camera-camera" name="Camera-camera">
         <optics>
            <technique_common>
               <perspective>
                  <xfov>46.666667</xfov>
                  <yfov>35.000000</yfov>
                  <znear>0.025400</znear>
                  <zfar>25.400000</zfar>
               </perspective>
            </technique_common>
         </optics>
      </camera>
   </library_cameras>
   <library_visual_scenes>
      <visual_scene id="SketchUpScene" name="SketchUpScene">
         <node id="Model" name="Model">
            <node id="mesh1" name="mesh1">
               <instance_geometry url="#mesh1-geometry">
                  <bind_material>
                     <technique_common>
                        <instance_material symbol="material_0_1_0" target="#material_0_1_0ID">
                           <bind_vertex_input semantic="UVSET0" input_semantic="TEXCOORD" input_set="0"/>
                        </instance_material>
                        <instance_material symbol="material_3_5_0" target="#material_3_5_0ID">
                           <bind_vertex_input semantic="UVSET0" input_semantic="TEXCOORD" input_set="0"/>
                        </instance_material>
                        <instance_material symbol="material_12_14_0" target="#material_12_14_0ID">
                           <bind_vertex_input semantic="UVSET0" input_semantic="TEXCOORD" input_set="0"/>
                        </instance_material>
                        <instance_material symbol="material_0_1_8" target="#material_0_1_8ID">
                           <bind_vertex_input semantic="UVSET0" input_semantic="TEXCOORD" input_set="0"/>
                        </instance_material>
                        <instance_material symbol="material_1_2_8" target="#material_1_2_8ID">
                           <bind_vertex_input semantic="UVSET0" input_semantic="TEXCOORD" input_set="0"/>
                        </instance_material>
                        <instance_material symbol="material_2_4_8" target="#material_2_4_8ID">
                           <bind_vertex_input semantic="UVSET0" input_semantic="TEXCOORD" input_set="0"/>
                        </instance_material>
                        <instance_material symbol="material_4_6_0" target="#material_4_6_0ID">
                           <bind_vertex_input semantic="UVSET0" input_semantic="TEXCOORD" input_set="0"/>
                        </instance_material>
                        <instance_material symbol="material_11_13_8" target="#material_11_13_8ID">
                           <bind_vertex_input semantic="UVSET0" input_semantic="TEXCOORD" input_set="0"/>
                        </instance_material>
                        <instance_material symbol="material_10_12_0" target="#material_10_12_0ID">
                           <bind_vertex_input semantic="UVSET0" input_semantic="TEXCOORD" input_set="0"/>
                        </instance_material>
                        <instance_material symbol="material_8_10_0" target="#material_8_10_0ID">
                           <bind_vertex_input semantic="UVSET0" input_semantic="TEXCOORD" input_set="0"/>
                        </instance_material>
                        <instance_material symbol="material_9_11_0" target="#material_9_11_0ID">
                           <bind_vertex_input semantic="UVSET0" input_semantic="TEXCOORD" input_set="0"/>
                        </instance_material>
                        <instance_material symbol="material_2_3_8" target="#material_2_3_8ID">
                           <bind_vertex_input semantic="UVSET0" input_semantic="TEXCOORD" input_set="0"/>
                        </instance_material>
                        <instance_material symbol="material_3_5_8" target="#material_3_5_8ID">
                           <bind_vertex_input semantic="UVSET0" input_semantic="TEXCOORD" input_set="0"/>
                        </instance_material>
                        <instance_material symbol="material_5_7_8" target="#material_5_7_8ID">
                           <bind_vertex_input semantic="UVSET0" input_semantic="TEXCOORD" input_set="0"/>
                        </instance_material>
                        <instance_material symbol="material_7_9_0" target="#material_7_9_0ID">
                           <bind_vertex_input semantic="UVSET0" input_semantic="TEXCOORD" input_set="0"/>
                        </instance_material>
                        <instance_material symbol="material_14_16_0" target="#material_14_16_0ID">
                           <bind_vertex_input semantic="UVSET0" input_semantic="TEXCOORD" input_set="0"/>
                        </instance_material>
                        <instance_material symbol="material_6_8_0" target="#material_6_8_0ID">
                           <bind_vertex_input semantic="UVSET0" input_semantic="TEXCOORD" input_set="0"/>
                        </instance_material>
                        <instance_material symbol="material_13_15_0" target="#material_13_15_0ID">
                           <bind_vertex_input semantic="UVSET0" input_semantic="TEXCOORD" input_set="0"/>
                        </instance_material>
                     </technique_common>
                  </bind_material>
               </instance_geometry>
            </node>
            <node id="mesh2" name="mesh2">
               <instance_geometry url="#mesh2-geometry">
                  <bind_material>
                     <technique_common>
                        <instance_material symbol="material_15_17_8" target="#material_15_17_8ID">
                           <bind_vertex_input semantic="UVSET0" input_semantic="TEXCOORD" input_set="0"/>
                        </instance_material>
                        <instance_material symbol="material_3_5_8" target="#material_3_5_8ID">
                           <bind_vertex_input semantic="UVSET0" input_semantic="TEXCOORD" input_set="0"/>
                        </instance_material>
                        <instance_material symbol="material_3_5_0" target="#material_3_5_0ID">
                           <bind_vertex_input semantic="UVSET0" input_semantic="TEXCOORD" input_set="0"/>
                        </instance_material>
                     </technique_common>
                  </bind_material>
               </instance_geometry>
            </node>
            <node id="mesh3" name="mesh3">
               <instance_geometry url="#mesh3-geometry">
                  <bind_material>
                     <technique_common>
                        <instance_material symbol="material_15_17_8" target="#material_15_17_8ID">
                           <bind_vertex_input semantic="UVSET0" input_semantic="TEXCOORD" input_set="0"/>
                        </instance_material>
                        <instance_material symbol="material_3_5_8" target="#material_3_5_8ID">
                           <bind_vertex_input semantic="UVSET0" input_semantic="TEXCOORD" input_set="0"/>
                        </instance_material>
                     </technique_common>
                  </bind_material>
               </instance_geometry>
            </node>
            <node id="mesh4" name="mesh4">
               <instance_geometry url="#mesh4-geometry">
                  <bind_material>
                     <technique_common>
                        <instance_material symbol="material_15_17_8" target="#material_15_17_8ID">
                           <bind_vertex_input semantic="UVSET0" input_semantic="TEXCOORD" input_set="0"/>
                        </instance_material>
                        <instance_material symbol="material_3_5_8" target="#material_3_5_8ID">
                           <bind_vertex_input semantic="UVSET0" input_semantic="TEXCOORD" input_set="0"/>
                        </instance_material>
                     </technique_common>
                  </bind_material>
               </instance_geometry>
            </node>
         </node>
         <node id="Camera" name="Camera">
            <lookat>
               -73.660354 -226.439984 545.024253
               54.496362 190.361496 -86.907766
               0.241897 0.786715 0.567948
            </lookat>
            <instance_camera url="#Camera-camera"/>
         </node>
      </visual_scene>
   </library_visual_scenes>
   <scene>
      <instance_visual_scene url="#SketchUpScene"/>
   </scene>
</COLLADA>
